﻿# Tiled2Unity generated file. Do not modify by hand.
# Wavefront file for 'masoncomputerroom_mesh_0008.obj'

# Vertices (Count = 16)
v -144 -32 0
v -160 -32 0
v -160 -16 0
v -144 -16 0
v -160 -32 0
v -176 -32 0
v -176 -16 0
v -160 -16 0
v -144 -48 0
v -160 -48 0
v -160 -32 0
v -144 -32 0
v -160 -48 0
v -176 -48 0
v -176 -32 0
v -160 -32 0

# Texture cooridinates (Count = 9)
vt 0.8 0.6559139
vt 0.9 0.6559139
vt 0.9 0.827957
vt 0.8 0.827957
vt 1 0.6559139
vt 1 0.827957
vt 0.8 0.483871
vt 0.9 0.483871
vt 1 0.483871

# Normal
vn 0 0 -1

# Mesh description
g masoncomputerroom_mesh_0008

# Faces
f 1/1/1 2/2/1 3/3/1 4/4/1
f 5/2/1 6/5/1 7/6/1 8/3/1
f 9/7/1 10/8/1 11/2/1 12/1/1
f 13/8/1 14/9/1 15/5/1 16/2/1

