%YAML 1.1
%TAG !u! tag:unity3d.com,2011:
--- !u!1045 &1
EditorBuildSettings:
  m_ObjectHideFlags: 0
  serializedVersion: 2
  m_Scenes:
  - enabled: 1
    path: Assets/Scenes/Mason_Main_Lab.unity
    guid: 93f22a7df8b8b90498c8925d45265a50
  - enabled: 1
    path: Assets/Scenes/Mason_Training_Room.unity
    guid: 9ef0e1ff3844b41469adf40d1aa6cc63
  - enabled: 1
    path: Assets/Scenes/Mason_Computer_Room.unity
    guid: 6c6735affdf4a76409824e362e170ec7
